<svg width="24" height="24" viewBox="0 0 24 24" fill="none" xmlns="http://www.w3.org/2000/svg">
<path d="M11.835 14.4587C11.568 14.4587 11.3069 14.5399 11.0849 14.692C10.8629 14.8441 10.6899 15.0604 10.5877 15.3134C10.4855 15.5664 10.4588 15.8448 10.5109 16.1134C10.563 16.382 10.6916 16.6287 10.8804 16.8223C11.0692 17.016 11.3097 17.1479 11.5716 17.2013C11.8335 17.2547 12.1049 17.2273 12.3516 17.1225C12.5983 17.0177 12.8091 16.8402 12.9574 16.6125C13.1058 16.3848 13.185 16.1171 13.185 15.8433C13.1846 15.4762 13.0422 15.1242 12.7891 14.8646C12.536 14.6051 12.1929 14.4591 11.835 14.4587ZM20.1278 4.30477V19.6538C20.1273 20.1433 19.9375 20.6125 19.6 20.9586C19.2626 21.3047 18.805 21.4994 18.3278 21.5L5.60005 21.5C5.12282 21.4995 4.6653 21.3048 4.32785 20.9587C3.9904 20.6126 3.80058 20.1433 3.80005 19.6538V4.3048C3.80058 3.81534 3.9904 3.34608 4.32785 2.99998C4.6653 2.65388 5.12282 2.4592 5.60005 2.45865L18.3278 2.45862C18.805 2.45917 19.2626 2.65385 19.6 2.99995C19.9375 3.34605 20.1273 3.81531 20.1278 4.30477ZM18.1278 4.45862L5.80005 4.45865V19.5L18.1278 19.5V4.45862Z" fill="white"/>
</svg>
