{
  "project_info": {
    "project_number": "601018673583",
    "project_id": "radiolance-eee3b",
    "storage_bucket": "radiolance-eee3b.appspot.com"
  },
  "client": [
    {
      "client_info": {
        "mobilesdk_app_id": "1:601018673583:android:f88187dd41486a9dd7e75a",
        "android_client_info": {
          "package_name": "com.sdh.avp.all_vet_pharm"
        }
      },
      "oauth_client": [
        {
          "client_id": "601018673583-s9a85hn5g740g6rj1nh7pjkn4hg0r8so.apps.googleusercontent.com",
          "client_type": 3
        }
      ],
      "api_key": [
        {
          "current_key": "AIzaSyCKymH-POAgwIGJgUUPKHHam7WKFIzDctg"
        }
      ],
      "services": {
        "appinvite_service": {
          "other_platform_oauth_client": [
            {
              "client_id": "601018673583-s9a85hn5g740g6rj1nh7pjkn4hg0r8so.apps.googleusercontent.com",
              "client_type": 3
            }
          ]
        }
      }
    }
  ],
  "configuration_version": "1"
}